<svg id="Group_9" data-name="Group 9" xmlns="http://www.w3.org/2000/svg" width="15.325" height="17.493" viewBox="0 0 15.325 17.493">
  <g id="Group_8" data-name="Group 8" transform="translate(0 0)">
    <g id="Group_7" data-name="Group 7">
      <g id="Group_6" data-name="Group 6">
        <g id="Group_5" data-name="Group 5">
          <g id="Group_4" data-name="Group 4">
            <path id="Path_122" data-name="Path 122" d="M-285.771,498.366v9.617a1.281,1.281,0,0,1-1.277,1.277h-3.832v-6.386a1.281,1.281,0,0,0-1.277-1.277h-2.554a1.281,1.281,0,0,0-1.277,1.277v6.386h-3.832a1.281,1.281,0,0,1-1.277-1.277v-9.617a1.266,1.266,0,0,1,.46-.983l6.386-5.319a1.273,1.273,0,0,1,1.635,0l6.386,5.319A1.266,1.266,0,0,1-285.771,498.366Z" transform="translate(301.096 -491.767)" fill="#f5f5f5"/>
          </g>
        </g>
      </g>
    </g>
  </g>
</svg>
